…
``` r
sci_name <- map(all_resp, \(page) map_chr(page$result,"scientific_name")) |>
  list_c()
category <-
  map(all_resp,\(page) map_chr(page$result,"category")) |>
  list_c()
all_species <- tibble(sci_name, category)

extinct_species <- all_species |> filter(category == "EX")
extinct_species
```

    # A tibble: 481 × 2
       sci_name                   category
       <chr>                      <chr>   
     1 Mirogrex hulensis          EX      
     2 Acanthametropus pecatonica EX      
     3 Achatinella abbreviata     EX      
     4 Achatinella buddii         EX      
     5 Achatinella caesia         EX      
     6 Achatinella casta          EX      
     7 Achatinella decora         EX      
     8 Achatinella dimorpha       EX      
     9 Achatinella elegans        EX      
    10 Achatinella juddii         EX      
    # ℹ 471 more rows
…
``` r
#narrative_rationale <- map(narrative_contents,\(content)
                           #content$result[[1]]$rationale)
```

``` r
last_seen <-narrative_population |>
  map_chr(str_extract,"\\d{4}") |>
  as.integer()
tibble(sp,last_seen)
```

    # A tibble: 481 × 2
       sp                         last_seen
       <chr>                          <int>
     1 Mirogrex hulensis               1975
     2 Acanthametropus pecatonica        NA
     3 Achatinella abbreviata            NA
     4 Achatinella buddii                NA
     5 Achatinella caesia                NA
     6 Achatinella casta                 NA
     7 Achatinella decora                NA
     8 Achatinella dimorpha              NA
     9 Achatinella elegans               NA
    10 Achatinella juddii                NA
    # ℹ 471 more rows
…
